{
  "name": "kabupaten_kota",
  "base": "PersistedModel",
  "idInjection": true,
  "options": {
    "validateUpsert": true
  },
  "properties": {
    "_id": {
      "type": "number",
      "id": true
    },
    "CITY_NAME": {
      "type": "string",
      "length": 100
    },
    "FID_PROVINCE": {
      "type": "string",
      "length": 5
    },
    "LAST_UPDATE_BY": {
      "type": "string",
      "length": 20
    },
    "LAST_UPDATE_DATE": {
      "type": "date"
    },
    "PHONE_AREA_CODE": {
      "type": "string",
      "length": 5
    },
    "POSTAL_CODE": {
      "type": "string",
      "length": 2
    }
  },
  "validations": [],
  "relations": {
    "provinsi": {
      "type": "belongsTo",
      "model": "provinsi",
      "foreignKey": "FID_PROVINCE"
    },
    "kelurahans": {
      "type": "hasMany",
      "model": "kelurahan",
      "foreignKey": "FID_CITY_REGENCY"
    }
  },
  "acls": [],
  "methods": {}
}
