{
  "name": "klinik_dokter",
  "base": "PersistedModel",
  "idInjection": true,
  "options": {
    "validateUpsert": true
  },
  "properties": {
    "fk_klinik": {
      "type": "number",
      "default": 0
    },
    "fk_user": {
      "type": "number",
      "default": 0
    }
  },
  "validations": [],
  "relations": {
    "klinik": {
      "type": "belongsTo",
      "model": "klinik",
      "foreignKey": "fk_klinik"
    },
    "user": {
      "type": "belongsTo",
      "model": "user",
      "foreignKey": "fk_user"
    }
  },
  "acls": [],
  "methods": {}
}
