{
  "name": "menu_sidebar",
  "base": "PersistedModel",
  "idInjection": true,
  "options": {
    "validateUpsert": true
  },
  "properties": {
    "id": {
      "type": "number",
      "id": true,
      "generated": true
    },
    "url": {
      "type": "string",
      "default": " "
    },
    "label": {
      "type": "string",
      "default": " "
    },
    "parentId": {
      "type": "number",
      "default": 0
    },
    "orderMenu": {
      "type": "number",
      "default": 0
    },
    "icon": {
      "type": "string",
      "default": " "
    }
  },
  "validations": [],
  "relations": {
    "menuModels": {
      "type": "hasMany",
      "model": "menu_model",
      "foreignKey": "fk_menu"
    }
  },
  "acls": [],
  "methods": {}
}
