{
  "name": "provinsi",
  "base": "PersistedModel",
  "idInjection": true,
  "options": {
    "validateUpsert": true
  },
  "properties": {
    "_id": {
      "type": "number",
      "id": true,
      "generated": true
    },
    "FID_COUNTRY": {
      "type": "string",
      "length": 5
    },
    "LAST_UPDATE_BY": {
      "type": "string",
      "length": 20
    },
    "LAST_UPDATE_DATE": {
      "type": "date"
    },
    "POSTAL_CODE": {
      "type": "string",
      "length": 1
    },
    "PROVINCE_NAME": {
      "type": "string",
      "length": 100
    }
  },
  "validations": [],
  "relations": {
    "kabupatenKota": {
      "type": "hasMany",
      "model": "kabupaten_kota",
      "foreignKey": "FID_PROVINCE"
    }
  },
  "acls": [],
  "methods": {}
}
