{
  "name": "resep",
  "base": "PersistedModel",
  "idInjection": true,
  "options": {
    "validateUpsert": true
  },
  "properties": {
    "id": {
      "type": "number",
      "id": true,
      "generated": true
    },
    "fk_visit": {
      "type": "number",
      "default": 0
    },
    "obat": {
      "type": "string",
      "default": " "
    },
    "dosis": {
      "type": "string",
      "default": " "
    },
    "quantity": {
      "type": "number",
      "default": 0
    }
  },
  "validations": [],
  "relations": {
    "visit": {
      "type": "belongsTo",
      "model": "visit",
      "foreignKey": "fk_visit"
    }
  },
  "acls": [],
  "methods": {}
}
