{
  "name": "role",
  "base": "PersistedModel",
  "properties": {
    "id": {
      "type": "number",
      "id": true,
      "generated": true
    },
    "code": {
      "type": "string",
      "length": 255
    },
    "name": {
      "type": "string",
      "length": 255
    }
  },
  "validations": [],
  "relations": {},
  "acls": [],
  "methods": {}
}
