{
  "name": "user",
  "base": "User",
  "idInjection": true,
  "options": {
    "validateUpsert": true
  },
  "properties": {
    "id": {
      "type": "number",
      "id": true,
      "generated": true
    },
    "email": {
      "type": "string",
      "default": " "
    },
    "password": {
      "type": "string",
      "default": " "
    },
    "mobile": {
      "type": "string",
      "default": " "
    },
    "fullname": {
      "type": "string",
      "default": " "
    },
    "gender": {
      "type": "string",
      "default": " "
    },
    "birth_date": {
      "type": "date"
    },
    "blood_type": {
      "type": "string",
      "default": " "
    },
    "address": {
      "type": "string",
      "default": " "
    },
    "code": {
      "type": "string",
      "default": " "
    },
    "fk_role": {
      "type": "number",
      "default": 0
    },
    "jabatan": {
      "type": "string",
      "default": " "
    },
    "session": {
      "type": "boolean",
      "default": false
    },
    "fk_klinik": {
      "type": "number",
      "default": 0
    },
    "incomplete": {
      "type": "boolean",
      "default": true
    }
  },
  "validations": [],
  "relations": {
    "role": {
      "type": "belongsTo",
      "model": "role",
      "foreignKey": "fk_role"
    }
  },
  "acls": [
    {
      "accessType": "*",
      "principalType": "ROLE",
      "principalId": "$authenticated",
      "permission": "ALLOW"
    },
    {
      "accessType": "EXECUTE",
      "principalType": "ROLE",
      "principalId": "$everyone",
      "permission": "ALLOW",
      "property": "checkPassword"
    },
    {
      "accessType": "EXECUTE",
      "principalType": "ROLE",
      "principalId": "$everyone",
      "permission": "ALLOW",
      "property": "encodePassword"
    }
  ],
  "methods": {}
}
