{
  "_meta": {
    "sources": [
      "loopback/common/models",
      "loopback/server/models",
      "../common/models",
      "./models"
    ],
    "mixins": [
      "loopback/common/mixins",
      "loopback/server/mixins",
      "../common/mixins",
      "./mixins"
    ]
  },
  "ACL": {
    "dataSource": "db",
    "public": false
  },
  "RoleMapping": {
    "dataSource": "db",
    "public": false
  },
  "AccessToken": {
    "dataSource": "db",
    "public": false,
    "strict": true
  },
  "User": {
    "dataSource": "db",
    "public": false
  },
  "history_praktek": {
    "dataSource": "mssql_db",
    "public": true
  },
  "jadwal_praktek": {
    "dataSource": "mssql_db",
    "public": true
  },
  "klinik": {
    "dataSource": "mssql_db",
    "public": true
  },
  "klinik_dokter": {
    "dataSource": "mssql_db",
    "public": false
  },
  "medrec": {
    "dataSource": "mssql_db",
    "public": true
  },
  "menu_model": {
    "dataSource": "mssql_db",
    "public": true
  },
  "menu_sidebar": {
    "dataSource": "mssql_db",
    "public": true
  },
  "resep": {
    "dataSource": "mssql_db",
    "public": true
  },
  "role": {
    "dataSource": "mssql_db",
    "public": true
  },
  "user": {
    "dataSource": "mssql_db",
    "public": true
  },
  "visit": {
    "dataSource": "mssql_db",
    "public": true
  },
  "acl": {
    "dataSource": "mssql_db",
    "public": false
  },
  "image_container": {
    "dataSource": "image_storage",
    "public": true
  },
  "pembayaran": {
    "dataSource": "mssql_db",
    "public": true
  },
  "provinsi": {
    "dataSource": "mssql_db",
    "public": true
  },
  "kecamatan": {
    "dataSource": "mssql_db",
    "public": true
  },
  "kabupaten_kota": {
    "dataSource": "mssql_db",
    "public": true
  },
  "kelurahan": {
    "dataSource": "mssql_db",
    "public": true
  },
  "generic_param": {
    "dataSource": "mssql_db",
    "public": true
  },
  "katalog_jasa": {
    "dataSource": "mssql_db",
    "public": true
  },
  "stock": {
    "dataSource": "mssql_db",
    "public": true
  },
  "detail_pasien": {
    "dataSource": "mssql_db",
    "public": true
  },
  "penjamin_pasien": {
    "dataSource": "mssql_db",
    "public": true
  }
}
